"niv_ins","POB","POBR"
"Primaria incompleta",5124,0.0163037771689846
"Primaria completa",31758,0.101049054514562
"Secundaria completa",128072,0.407505337546097
"Medio superior y superior",149113,0.474454552107495
"No especificado",216,0.000687278662861179
