<?xml version='1.0' encoding='UTF-8' ?>
<svg xmlns='http://www.w3.org/2000/svg' xmlns:xlink='http://www.w3.org/1999/xlink' class='svglite' width='864.00pt' height='504.00pt' viewBox='0 0 864.00 504.00'>
<defs>
  <style type='text/css'><![CDATA[
    .svglite line, .svglite polyline, .svglite polygon, .svglite path, .svglite rect, .svglite circle {
      fill: none;
      stroke: #000000;
      stroke-linecap: round;
      stroke-linejoin: round;
      stroke-miterlimit: 10.00;
    }
  ]]></style>
</defs>
<rect width='100%' height='100%' style='stroke: none; fill: none;'/>
<defs>
  <clipPath id='cpMC4wMHw4NjQuMDB8MC4wMHw1MDQuMDA='>
    <rect x='0.00' y='0.00' width='864.00' height='504.00' />
  </clipPath>
</defs>
<g clip-path='url(#cpMC4wMHw4NjQuMDB8MC4wMHw1MDQuMDA=)'>
</g>
<defs>
  <clipPath id='cpMC4wMHw4NjQuMDB8MC4wMHw0MjAuMDA='>
    <rect x='0.00' y='0.000000000000057' width='864.00' height='420.00' />
  </clipPath>
</defs>
<g clip-path='url(#cpMC4wMHw4NjQuMDB8MC4wMHw0MjAuMDA=)'>
<rect x='0.00' y='0.000000000000057' width='864.00' height='420.00' style='stroke-width: 1.07; fill: #000000;' />
</g>
<g clip-path='url(#cpMC4wMHw4NjQuMDB8MC4wMHw1MDQuMDA=)'>
</g>
<defs>
  <clipPath id='cpNDcuODB8ODU4LjUyfDI2Ljk1fDM4Mi45OQ=='>
    <rect x='47.80' y='26.95' width='810.73' height='356.04' />
  </clipPath>
</defs>
<g clip-path='url(#cpNDcuODB8ODU4LjUyfDI2Ljk1fDM4Mi45OQ==)'>
<rect x='47.80' y='26.95' width='810.73' height='356.04' style='stroke-width: 1.07; stroke: #FFFFFF; fill: #464646;' />
<polyline points='47.80,378.97 858.52,378.97 ' style='stroke-width: 0.53; stroke: #8B8B8B; stroke-linecap: butt;' />
<polyline points='47.80,320.25 858.52,320.25 ' style='stroke-width: 0.53; stroke: #8B8B8B; stroke-linecap: butt;' />
<polyline points='47.80,261.53 858.52,261.53 ' style='stroke-width: 0.53; stroke: #8B8B8B; stroke-linecap: butt;' />
<polyline points='47.80,202.81 858.52,202.81 ' style='stroke-width: 0.53; stroke: #8B8B8B; stroke-linecap: butt;' />
<polyline points='47.80,144.09 858.52,144.09 ' style='stroke-width: 0.53; stroke: #8B8B8B; stroke-linecap: butt;' />
<polyline points='47.80,85.38 858.52,85.38 ' style='stroke-width: 0.53; stroke: #8B8B8B; stroke-linecap: butt;' />
<polyline points='84.65,382.99 84.65,26.95 ' style='stroke-width: 0.53; stroke: #8B8B8B; stroke-linecap: butt;' />
<polyline points='232.05,382.99 232.05,26.95 ' style='stroke-width: 0.53; stroke: #8B8B8B; stroke-linecap: butt;' />
<polyline points='379.46,382.99 379.46,26.95 ' style='stroke-width: 0.53; stroke: #8B8B8B; stroke-linecap: butt;' />
<polyline points='526.86,382.99 526.86,26.95 ' style='stroke-width: 0.53; stroke: #8B8B8B; stroke-linecap: butt;' />
<polyline points='674.26,382.99 674.26,26.95 ' style='stroke-width: 0.53; stroke: #8B8B8B; stroke-linecap: butt;' />
<polyline points='821.67,382.99 821.67,26.95 ' style='stroke-width: 0.53; stroke: #8B8B8B; stroke-linecap: butt;' />
<polyline points='84.65,202.81 158.35,309.70 232.05,300.17 305.75,279.98 379.46,268.60 453.16,286.18 526.86,260.35 600.56,330.07 674.26,320.33 747.97,324.84 821.67,339.72 ' style='stroke-width: 1.07; stroke: #00FF00; stroke-linecap: butt;' />
<polyline points='84.65,202.81 158.35,294.42 232.05,291.09 305.75,184.98 379.46,199.34 453.16,177.47 526.86,149.92 600.56,119.41 674.26,185.84 747.97,45.26 821.67,43.13 ' style='stroke-width: 1.07; stroke: #FF00FF; stroke-linecap: butt;' />
<polyline points='84.65,202.81 158.35,366.81 232.05,314.49 305.75,181.24 379.46,209.13 453.16,144.01 526.86,115.45 600.56,184.60 674.26,310.93 747.97,168.53 821.67,147.14 ' style='stroke-width: 1.07; stroke: #FF0000; stroke-linecap: butt;' />
<polyline points='84.65,202.81 158.35,172.50 232.05,193.48 305.75,183.48 379.46,162.16 453.16,183.43 526.86,193.61 600.56,235.59 674.26,275.78 747.97,296.15 821.67,328.16 ' style='stroke-width: 1.07; stroke: #FFFFFF; stroke-linecap: butt;' />
<polyline points='84.65,202.81 158.35,183.47 232.05,197.91 305.75,185.47 379.46,162.89 453.16,179.77 526.86,160.76 600.56,191.60 674.26,234.42 747.97,250.14 821.67,284.70 ' style='stroke-width: 1.07; stroke: #FFC0CB; stroke-linecap: butt;' />
</g>
<g clip-path='url(#cpMC4wMHw4NjQuMDB8MC4wMHw1MDQuMDA=)'>
<text x='42.86' y='383.05' text-anchor='end' style='font-size: 11.20px; fill: #FFFFFF; font-family: Liberation Sans;' textLength='14.24px' lengthAdjust='spacingAndGlyphs'>70</text>
<text x='42.86' y='324.33' text-anchor='end' style='font-size: 11.20px; fill: #FFFFFF; font-family: Liberation Sans;' textLength='14.24px' lengthAdjust='spacingAndGlyphs'>80</text>
<text x='42.86' y='265.61' text-anchor='end' style='font-size: 11.20px; fill: #FFFFFF; font-family: Liberation Sans;' textLength='14.24px' lengthAdjust='spacingAndGlyphs'>90</text>
<text x='42.86' y='206.89' text-anchor='end' style='font-size: 11.20px; fill: #FFFFFF; font-family: Liberation Sans;' textLength='21.36px' lengthAdjust='spacingAndGlyphs'>100</text>
<text x='42.86' y='148.17' text-anchor='end' style='font-size: 11.20px; fill: #FFFFFF; font-family: Liberation Sans;' textLength='21.36px' lengthAdjust='spacingAndGlyphs'>110</text>
<text x='42.86' y='89.45' text-anchor='end' style='font-size: 11.20px; fill: #FFFFFF; font-family: Liberation Sans;' textLength='21.36px' lengthAdjust='spacingAndGlyphs'>120</text>
<polyline points='45.06,378.97 47.80,378.97 ' style='stroke-width: 0.53; stroke: #FFFFFF; stroke-linecap: butt;' />
<polyline points='45.06,320.25 47.80,320.25 ' style='stroke-width: 0.53; stroke: #FFFFFF; stroke-linecap: butt;' />
<polyline points='45.06,261.53 47.80,261.53 ' style='stroke-width: 0.53; stroke: #FFFFFF; stroke-linecap: butt;' />
<polyline points='45.06,202.81 47.80,202.81 ' style='stroke-width: 0.53; stroke: #FFFFFF; stroke-linecap: butt;' />
<polyline points='45.06,144.09 47.80,144.09 ' style='stroke-width: 0.53; stroke: #FFFFFF; stroke-linecap: butt;' />
<polyline points='45.06,85.38 47.80,85.38 ' style='stroke-width: 0.53; stroke: #FFFFFF; stroke-linecap: butt;' />
<polyline points='84.65,385.73 84.65,382.99 ' style='stroke-width: 0.53; stroke: #FFFFFF; stroke-linecap: butt;' />
<polyline points='232.05,385.73 232.05,382.99 ' style='stroke-width: 0.53; stroke: #FFFFFF; stroke-linecap: butt;' />
<polyline points='379.46,385.73 379.46,382.99 ' style='stroke-width: 0.53; stroke: #FFFFFF; stroke-linecap: butt;' />
<polyline points='526.86,385.73 526.86,382.99 ' style='stroke-width: 0.53; stroke: #FFFFFF; stroke-linecap: butt;' />
<polyline points='674.26,385.73 674.26,382.99 ' style='stroke-width: 0.53; stroke: #FFFFFF; stroke-linecap: butt;' />
<polyline points='821.67,385.73 821.67,382.99 ' style='stroke-width: 0.53; stroke: #FFFFFF; stroke-linecap: butt;' />
<text x='84.65' y='396.08' text-anchor='middle' style='font-size: 11.20px; fill: #FFFFFF; font-family: Liberation Sans;' textLength='28.48px' lengthAdjust='spacingAndGlyphs'>2008</text>
<text x='232.05' y='396.08' text-anchor='middle' style='font-size: 11.20px; fill: #FFFFFF; font-family: Liberation Sans;' textLength='28.48px' lengthAdjust='spacingAndGlyphs'>2010</text>
<text x='379.46' y='396.08' text-anchor='middle' style='font-size: 11.20px; fill: #FFFFFF; font-family: Liberation Sans;' textLength='28.48px' lengthAdjust='spacingAndGlyphs'>2012</text>
<text x='526.86' y='396.08' text-anchor='middle' style='font-size: 11.20px; fill: #FFFFFF; font-family: Liberation Sans;' textLength='28.48px' lengthAdjust='spacingAndGlyphs'>2014</text>
<text x='674.26' y='396.08' text-anchor='middle' style='font-size: 11.20px; fill: #FFFFFF; font-family: Liberation Sans;' textLength='28.48px' lengthAdjust='spacingAndGlyphs'>2016</text>
<text x='821.67' y='396.08' text-anchor='middle' style='font-size: 11.20px; fill: #FFFFFF; font-family: Liberation Sans;' textLength='28.48px' lengthAdjust='spacingAndGlyphs'>2018</text>
<text transform='translate(15.68,204.97) rotate(-90)' text-anchor='middle' style='font-size: 14.00px; fill: #FFFFFF; font-family: Liberation Sans;' textLength='140.41px' lengthAdjust='spacingAndGlyphs'>Índice (2008 = 100)</text>
<text x='47.80' y='17.73' style='font-size: 16.80px; fill: #FFFFFF; font-family: Liberation Sans;' textLength='262.33px' lengthAdjust='spacingAndGlyphs'>Veracruz de Ignacio de la Llave</text>
</g>
<defs>
  <clipPath id='cpMC4wMHw4NjQuMDB8NDIwLjAwfDUwNC4wMA=='>
    <rect x='0.00' y='420.00' width='864.00' height='84.00' />
  </clipPath>
</defs>
<g clip-path='url(#cpMC4wMHw4NjQuMDB8NDIwLjAwfDUwNC4wMA==)'>
<rect x='0.00' y='420.00' width='864.00' height='84.00' style='stroke-width: 0.75; fill: #000000;' />
</g>
<g clip-path='url(#cpMC4wMHw4NjQuMDB8MC4wMHw1MDQuMDA=)'>
<rect x='40.74' y='429.19' width='350.51' height='65.62' style='stroke-width: 1.07; stroke: none; fill: #000000;' />
<text x='46.22' y='446.33' style='font-size: 14.00px; fill: #FFFFFF; font-family: Liberation Sans;' textLength='270.48px' lengthAdjust='spacingAndGlyphs'>Productividad del trabajo en relación a</text>
<rect x='46.22' y='454.77' width='17.28' height='17.28' style='stroke-width: 1.07; stroke: none; fill: #000000;' />
<line x1='47.95' y1='463.41' x2='61.77' y2='463.41' style='stroke-width: 1.07; stroke: #00FF00; stroke-linecap: butt;' />
<rect x='46.22' y='472.05' width='17.28' height='17.28' style='stroke-width: 1.07; stroke: none; fill: #000000;' />
<line x1='47.95' y1='480.69' x2='61.77' y2='480.69' style='stroke-width: 1.07; stroke: #FF00FF; stroke-linecap: butt;' />
<rect x='229.89' y='454.77' width='17.28' height='17.28' style='stroke-width: 1.07; stroke: none; fill: #000000;' />
<line x1='231.62' y1='463.41' x2='245.44' y2='463.41' style='stroke-width: 1.07; stroke: #FF0000; stroke-linecap: butt;' />
<text x='70.48' y='467.49' style='font-size: 11.20px; fill: #FFFFFF; font-family: Liberation Sans;' textLength='152.94px' lengthAdjust='spacingAndGlyphs'>Valor del producto nacional</text>
<text x='70.48' y='484.77' style='font-size: 11.20px; fill: #FFFFFF; font-family: Liberation Sans;' textLength='126.17px' lengthAdjust='spacingAndGlyphs'>Exportaciones en MXN</text>
<text x='254.15' y='467.49' style='font-size: 11.20px; fill: #FFFFFF; font-family: Liberation Sans;' textLength='124.39px' lengthAdjust='spacingAndGlyphs'>Exportaciones en USD</text>
<rect x='551.58' y='429.19' width='192.83' height='65.62' style='stroke-width: 1.07; stroke: none; fill: #000000;' />
<text x='557.06' y='446.33' style='font-size: 14.00px; fill: #FFFFFF; font-family: Liberation Sans;' textLength='142.95px' lengthAdjust='spacingAndGlyphs'>Salario real por hora</text>
<rect x='557.06' y='454.77' width='17.28' height='17.28' style='stroke-width: 1.07; stroke: none; fill: #000000;' />
<line x1='558.79' y1='463.41' x2='572.62' y2='463.41' style='stroke-width: 1.07; stroke: #FFFFFF; stroke-linecap: butt;' />
<rect x='557.06' y='472.05' width='17.28' height='17.28' style='stroke-width: 1.07; stroke: none; fill: #000000;' />
<line x1='558.79' y1='480.69' x2='572.62' y2='480.69' style='stroke-width: 1.07; stroke: #FFC0CB; stroke-linecap: butt;' />
<text x='581.32' y='467.49' style='font-size: 11.20px; fill: #FFFFFF; font-family: Liberation Sans;' textLength='182.33px' lengthAdjust='spacingAndGlyphs'>Promedio (total de trabajadores)</text>
<text x='581.32' y='484.77' style='font-size: 11.20px; fill: #FFFFFF; font-family: Liberation Sans;' textLength='163.59px' lengthAdjust='spacingAndGlyphs'>Promedio (obreros de planta)</text>
</g>
</svg>
