<?xml version='1.0' encoding='UTF-8' ?>
<svg xmlns='http://www.w3.org/2000/svg' xmlns:xlink='http://www.w3.org/1999/xlink' class='svglite' width='936.00pt' height='648.00pt' viewBox='0 0 936.00 648.00'>
<defs>
  <style type='text/css'><![CDATA[
    .svglite line, .svglite polyline, .svglite polygon, .svglite path, .svglite rect, .svglite circle {
      fill: none;
      stroke: #000000;
      stroke-linecap: round;
      stroke-linejoin: round;
      stroke-miterlimit: 10.00;
    }
  ]]></style>
</defs>
<rect width='100%' height='100%' style='stroke: none; fill: #000000;'/>
<defs>
  <clipPath id='cpMC4wMHw5MzYuMDB8MC4wMHw2NDguMDA='>
    <rect x='0.00' y='0.00' width='936.00' height='648.00' />
  </clipPath>
</defs>
<g clip-path='url(#cpMC4wMHw5MzYuMDB8MC4wMHw2NDguMDA=)'>
</g>
<defs>
  <clipPath id='cpMzguNjN8ODk3LjM3fDAuMDB8NjQ4LjAw'>
    <rect x='38.63' y='0.00' width='858.74' height='648.00' />
  </clipPath>
</defs>
<g clip-path='url(#cpMzguNjN8ODk3LjM3fDAuMDB8NjQ4LjAw)'>
<rect x='38.63' y='0.00' width='858.74' height='648.00' style='stroke-width: 0.75; fill: #000000;' />
</g>
<g clip-path='url(#cpMC4wMHw5MzYuMDB8MC4wMHw2NDguMDA=)'>
</g>
<defs>
  <clipPath id='cpMzguNjN8Njg2LjYzfDAuMDB8NjQ4LjAw'>
    <rect x='38.63' y='0.00' width='648.00' height='648.00' />
  </clipPath>
</defs>
<g clip-path='url(#cpMzguNjN8Njg2LjYzfDAuMDB8NjQ4LjAw)'>
<polygon points='362.63,324.00 362.63,315.06 362.63,306.12 362.63,297.19 362.63,288.25 362.63,279.31 362.63,270.37 362.63,261.43 362.63,252.50 362.63,243.56 362.63,234.62 362.63,225.68 362.63,216.74 362.63,207.81 362.63,198.87 362.63,189.93 362.63,180.99 362.63,172.06 362.63,163.12 362.63,154.18 362.63,145.24 362.63,136.30 362.63,127.37 362.63,118.43 362.63,109.49 362.63,100.55 362.63,91.61 362.63,82.68 362.63,73.74 362.63,64.80 353.85,64.95 345.08,65.40 336.33,66.14 327.60,67.18 318.92,68.51 310.29,70.14 301.72,72.06 293.22,74.27 284.80,76.76 276.47,79.54 268.24,82.60 260.11,85.94 252.11,89.55 244.23,93.42 236.48,97.57 228.88,101.97 221.44,106.63 214.16,111.54 207.04,116.69 200.11,122.08 193.36,127.70 186.81,133.55 180.46,139.62 174.31,145.89 168.39,152.38 162.69,159.06 157.21,165.92 151.97,172.97 146.98,180.20 142.23,187.59 137.74,195.13 133.50,202.83 129.52,210.66 125.82,218.62 122.38,226.70 119.23,234.90 116.35,243.20 113.75,251.59 111.44,260.06 109.42,268.61 107.69,277.22 106.25,285.88 105.10,294.59 104.26,303.33 103.70,312.10 103.45,320.88 103.49,329.66 103.83,338.43 104.47,347.19 105.40,355.93 106.63,364.62 108.16,373.27 109.97,381.87 112.08,390.39 114.47,398.84 117.15,407.21 120.11,415.48 123.35,423.64 126.86,431.69 130.64,439.62 134.69,447.41 139.01,455.06 143.57,462.56 148.39,469.90 153.46,477.08 158.77,484.08 164.31,490.89 170.07,497.51 176.06,503.94 182.27,510.16 188.68,516.16 195.29,521.94 202.09,527.50 209.08,532.82 216.24,537.90 223.57,542.74 231.06,547.32 238.70,551.65 246.49,555.72 254.40,559.52 262.44,563.06 270.60,566.31 278.86,569.29 287.22,571.99 295.67,574.40 304.19,576.53 312.78,578.36 321.42,579.90 330.12,581.15 338.85,582.11 347.61,582.76 356.38,583.12 365.16,583.19 373.94,582.95 382.71,582.42 391.45,581.59 400.16,580.47 408.83,579.05 417.45,577.34 426.00,575.34 434.48,573.04 442.87,570.47 451.18,567.61 459.38,564.47 467.47,561.05 475.44,557.36 483.28,553.41 490.98,549.19 498.54,544.71 505.94,539.98 513.17,535.00 520.24,529.78 514.80,522.68 509.37,515.59 503.93,508.49 498.50,501.40 493.06,494.30 487.63,487.20 482.19,480.11 476.76,473.01 471.32,465.92 465.89,458.82 460.45,451.72 455.02,444.63 449.59,437.53 444.15,430.44 438.72,423.34 433.28,416.25 427.85,409.15 422.41,402.05 416.98,394.96 411.54,387.86 406.11,380.77 400.67,373.67 395.24,366.57 389.80,359.48 384.37,352.38 378.93,345.29 373.50,338.19 368.06,331.10 362.63,324.00 362.63,324.00 ' style='stroke-width: 1.07; fill: #BD0589;' />
<polygon points='362.63,324.00 368.06,331.10 373.50,338.19 378.93,345.29 384.37,352.38 389.80,359.48 395.24,366.57 400.67,373.67 406.11,380.77 411.54,387.86 416.98,394.96 422.41,402.05 427.85,409.15 433.28,416.25 438.72,423.34 444.15,430.44 449.59,437.53 455.02,444.63 460.45,451.72 465.89,458.82 471.32,465.92 476.76,473.01 482.19,480.11 487.63,487.20 493.06,494.30 498.50,501.40 503.93,508.49 509.37,515.59 514.80,522.68 520.24,529.78 527.16,524.29 533.89,518.57 540.42,512.62 546.74,506.45 552.85,500.07 558.74,493.49 564.40,486.70 569.83,479.74 575.02,472.58 579.95,465.26 584.64,457.77 589.07,450.13 593.24,442.34 597.14,434.41 600.76,426.36 604.11,418.19 607.18,409.90 609.97,401.52 612.46,393.05 614.67,384.49 616.59,375.87 618.21,367.18 619.53,358.45 620.56,349.68 621.28,340.87 621.71,332.05 621.83,323.22 621.65,314.39 621.17,305.56 620.40,296.77 619.32,288.00 617.94,279.27 616.27,270.60 614.30,261.99 612.04,253.45 609.49,244.99 606.66,236.62 603.54,228.36 600.14,220.20 596.47,212.17 592.52,204.27 588.31,196.50 583.83,188.89 579.10,181.43 574.11,174.14 568.88,167.02 563.41,160.08 557.71,153.33 551.78,146.78 545.64,140.44 539.27,134.31 532.71,128.40 525.94,122.72 518.99,117.27 511.86,112.06 504.55,107.10 497.07,102.39 489.44,97.94 481.67,93.75 473.75,89.83 465.71,86.18 457.54,82.80 449.27,79.71 440.90,76.90 432.43,74.38 423.88,72.14 415.27,70.20 406.59,68.55 397.86,67.20 389.09,66.15 380.28,65.40 371.46,64.95 362.63,64.80 362.63,73.74 362.63,82.68 362.63,91.61 362.63,100.55 362.63,109.49 362.63,118.43 362.63,127.37 362.63,136.30 362.63,145.24 362.63,154.18 362.63,163.12 362.63,172.06 362.63,180.99 362.63,189.93 362.63,198.87 362.63,207.81 362.63,216.74 362.63,225.68 362.63,234.62 362.63,243.56 362.63,252.50 362.63,261.43 362.63,270.37 362.63,279.31 362.63,288.25 362.63,297.19 362.63,306.12 362.63,315.06 362.63,324.00 362.63,324.00 ' style='stroke-width: 1.07; fill: #39C081;' />
<text x='240.85' y='370.39' text-anchor='middle' style='font-size: 14.23px; font-family: Liberation Sans;' textLength='49.71px' lengthAdjust='spacingAndGlyphs'>60.4 %</text>
<text x='486.33' y='287.18' text-anchor='middle' style='font-size: 14.23px; font-family: Liberation Sans;' textLength='49.71px' lengthAdjust='spacingAndGlyphs'>39.6 %</text>
<text x='240.62' y='370.05' text-anchor='middle' style='font-size: 14.23px; font-family: Liberation Sans;' textLength='49.71px' lengthAdjust='spacingAndGlyphs'>60.4 %</text>
<text x='486.10' y='286.85' text-anchor='middle' style='font-size: 14.23px; font-family: Liberation Sans;' textLength='49.71px' lengthAdjust='spacingAndGlyphs'>39.6 %</text>
<text x='240.29' y='369.83' text-anchor='middle' style='font-size: 14.23px; font-family: Liberation Sans;' textLength='49.71px' lengthAdjust='spacingAndGlyphs'>60.4 %</text>
<text x='485.77' y='286.62' text-anchor='middle' style='font-size: 14.23px; font-family: Liberation Sans;' textLength='49.71px' lengthAdjust='spacingAndGlyphs'>39.6 %</text>
<text x='239.89' y='369.75' text-anchor='middle' style='font-size: 14.23px; font-family: Liberation Sans;' textLength='49.71px' lengthAdjust='spacingAndGlyphs'>60.4 %</text>
<text x='485.37' y='286.54' text-anchor='middle' style='font-size: 14.23px; font-family: Liberation Sans;' textLength='49.71px' lengthAdjust='spacingAndGlyphs'>39.6 %</text>
<text x='239.49' y='369.83' text-anchor='middle' style='font-size: 14.23px; font-family: Liberation Sans;' textLength='49.71px' lengthAdjust='spacingAndGlyphs'>60.4 %</text>
<text x='484.97' y='286.62' text-anchor='middle' style='font-size: 14.23px; font-family: Liberation Sans;' textLength='49.71px' lengthAdjust='spacingAndGlyphs'>39.6 %</text>
<text x='239.16' y='370.05' text-anchor='middle' style='font-size: 14.23px; font-family: Liberation Sans;' textLength='49.71px' lengthAdjust='spacingAndGlyphs'>60.4 %</text>
<text x='484.64' y='286.85' text-anchor='middle' style='font-size: 14.23px; font-family: Liberation Sans;' textLength='49.71px' lengthAdjust='spacingAndGlyphs'>39.6 %</text>
<text x='238.93' y='370.39' text-anchor='middle' style='font-size: 14.23px; font-family: Liberation Sans;' textLength='49.71px' lengthAdjust='spacingAndGlyphs'>60.4 %</text>
<text x='484.41' y='287.18' text-anchor='middle' style='font-size: 14.23px; font-family: Liberation Sans;' textLength='49.71px' lengthAdjust='spacingAndGlyphs'>39.6 %</text>
<text x='238.85' y='370.79' text-anchor='middle' style='font-size: 14.23px; font-family: Liberation Sans;' textLength='49.71px' lengthAdjust='spacingAndGlyphs'>60.4 %</text>
<text x='484.33' y='287.58' text-anchor='middle' style='font-size: 14.23px; font-family: Liberation Sans;' textLength='49.71px' lengthAdjust='spacingAndGlyphs'>39.6 %</text>
<text x='238.93' y='371.18' text-anchor='middle' style='font-size: 14.23px; font-family: Liberation Sans;' textLength='49.71px' lengthAdjust='spacingAndGlyphs'>60.4 %</text>
<text x='484.41' y='287.98' text-anchor='middle' style='font-size: 14.23px; font-family: Liberation Sans;' textLength='49.71px' lengthAdjust='spacingAndGlyphs'>39.6 %</text>
<text x='239.16' y='371.52' text-anchor='middle' style='font-size: 14.23px; font-family: Liberation Sans;' textLength='49.71px' lengthAdjust='spacingAndGlyphs'>60.4 %</text>
<text x='484.64' y='288.31' text-anchor='middle' style='font-size: 14.23px; font-family: Liberation Sans;' textLength='49.71px' lengthAdjust='spacingAndGlyphs'>39.6 %</text>
<text x='239.49' y='371.75' text-anchor='middle' style='font-size: 14.23px; font-family: Liberation Sans;' textLength='49.71px' lengthAdjust='spacingAndGlyphs'>60.4 %</text>
<text x='484.97' y='288.54' text-anchor='middle' style='font-size: 14.23px; font-family: Liberation Sans;' textLength='49.71px' lengthAdjust='spacingAndGlyphs'>39.6 %</text>
<text x='239.89' y='371.82' text-anchor='middle' style='font-size: 14.23px; font-family: Liberation Sans;' textLength='49.71px' lengthAdjust='spacingAndGlyphs'>60.4 %</text>
<text x='485.37' y='288.62' text-anchor='middle' style='font-size: 14.23px; font-family: Liberation Sans;' textLength='49.71px' lengthAdjust='spacingAndGlyphs'>39.6 %</text>
<text x='240.29' y='371.75' text-anchor='middle' style='font-size: 14.23px; font-family: Liberation Sans;' textLength='49.71px' lengthAdjust='spacingAndGlyphs'>60.4 %</text>
<text x='485.77' y='288.54' text-anchor='middle' style='font-size: 14.23px; font-family: Liberation Sans;' textLength='49.71px' lengthAdjust='spacingAndGlyphs'>39.6 %</text>
<text x='240.62' y='371.52' text-anchor='middle' style='font-size: 14.23px; font-family: Liberation Sans;' textLength='49.71px' lengthAdjust='spacingAndGlyphs'>60.4 %</text>
<text x='486.10' y='288.31' text-anchor='middle' style='font-size: 14.23px; font-family: Liberation Sans;' textLength='49.71px' lengthAdjust='spacingAndGlyphs'>39.6 %</text>
<text x='240.85' y='371.18' text-anchor='middle' style='font-size: 14.23px; font-family: Liberation Sans;' textLength='49.71px' lengthAdjust='spacingAndGlyphs'>60.4 %</text>
<text x='486.33' y='287.98' text-anchor='middle' style='font-size: 14.23px; font-family: Liberation Sans;' textLength='49.71px' lengthAdjust='spacingAndGlyphs'>39.6 %</text>
<text x='240.93' y='370.79' text-anchor='middle' style='font-size: 14.23px; font-family: Liberation Sans;' textLength='49.71px' lengthAdjust='spacingAndGlyphs'>60.4 %</text>
<text x='486.41' y='287.58' text-anchor='middle' style='font-size: 14.23px; font-family: Liberation Sans;' textLength='49.71px' lengthAdjust='spacingAndGlyphs'>39.6 %</text>
<text x='239.89' y='370.79' text-anchor='middle' style='font-size: 14.23px; fill: #FFFFFF; font-family: Liberation Sans;' textLength='49.71px' lengthAdjust='spacingAndGlyphs'>60.4 %</text>
<text x='485.37' y='287.58' text-anchor='middle' style='font-size: 14.23px; fill: #FFFFFF; font-family: Liberation Sans;' textLength='49.71px' lengthAdjust='spacingAndGlyphs'>39.6 %</text>
</g>
<g clip-path='url(#cpMC4wMHw5MzYuMDB8MC4wMHw2NDguMDA=)'>
<text x='692.30' y='308.45' style='font-size: 15.00px; fill: #FFFFFF; font-family: Liberation Sans;' textLength='205.07px' lengthAdjust='spacingAndGlyphs'>Identificación sexogenérica</text>
<rect x='693.01' y='318.19' width='15.86' height='15.86' style='stroke-width: 1.07; stroke-linecap: square; stroke-linejoin: miter; fill: #BD0589;' />
<rect x='693.01' y='335.47' width='15.86' height='15.86' style='stroke-width: 1.07; stroke-linecap: square; stroke-linejoin: miter; fill: #39C081;' />
<text x='717.05' y='330.50' style='font-size: 12.00px; fill: #FFFFFF; font-family: Liberation Sans;' textLength='47.74px' lengthAdjust='spacingAndGlyphs'>Hombre</text>
<text x='717.05' y='347.78' style='font-size: 12.00px; fill: #FFFFFF; font-family: Liberation Sans;' textLength='33.62px' lengthAdjust='spacingAndGlyphs'>Mujer</text>
</g>
</svg>
